<svg width="60" height="60" viewBox="0 0 60 60" fill="none" xmlns="http://www.w3.org/2000/svg">
<g opacity="0.9" clip-path="url(#clip0)">
<path d="M15.303 31.9745C14.8179 31.9745 14.4246 32.3675 14.4246 32.8523C14.4246 33.3371 14.8179 33.7301 15.303 33.7301C15.7881 33.7301 16.1813 33.3371 16.1813 32.8523C16.1813 32.3675 15.7881 31.9745 15.303 31.9745ZM10.4254 26.1969C10.0677 25.7353 9.87073 25.1594 9.87073 24.5754V20.4765C9.87073 19.9918 9.47772 19.5988 8.99296 19.5988C8.50819 19.5988 8.11519 19.9918 8.11519 20.4765V24.5754C8.11519 25.5467 8.44277 26.5044 9.03767 27.2721L9.61173 28.0132C9.78471 28.2365 10.0441 28.3534 10.3062 28.3534C10.494 28.3534 10.6832 28.2934 10.8432 28.1694C11.2264 27.8725 11.2965 27.3212 10.9994 26.938L10.4254 26.1969ZM18.239 31.9745C17.7538 31.9745 17.3606 32.3675 17.3606 32.8523C17.3606 33.3371 17.7538 33.7301 18.239 33.7301C18.7241 33.7301 19.1173 33.3371 19.1173 32.8523C19.1173 32.3675 18.7241 31.9745 18.239 31.9745ZM30.0676 14.99C30.5524 14.99 30.9454 14.597 30.9454 14.1122V13.6512C32.0485 13.3023 32.8506 12.2693 32.8506 11.0523V10.9657C32.8506 9.41518 31.5892 8.15388 30.0388 8.15388C29.4563 8.15388 28.9825 7.68 28.9825 7.09751V7.0109C28.9825 6.47616 29.4176 6.04114 29.9522 6.04114H30.1254C30.5572 6.04114 30.9409 6.33069 31.0585 6.74511C31.1908 7.2115 31.6756 7.48209 32.1425 7.35007C32.6089 7.21782 32.8797 6.73247 32.7475 6.26608C32.4941 5.37251 31.8011 4.68703 30.9456 4.41468V3.95087C30.9456 3.4661 30.5526 3.07309 30.0678 3.07309C29.5831 3.07309 29.1901 3.4661 29.1901 3.95087V4.39479C28.0574 4.72541 27.2271 5.77266 27.2271 7.01078V7.09739C27.2271 8.64789 28.4885 9.90931 30.0389 9.90931C30.6214 9.90931 31.0952 10.3832 31.0952 10.9656V11.0522C31.0952 11.5869 30.6601 12.0219 30.1254 12.0219H29.9522C29.5256 12.0219 29.1432 11.7368 29.0222 11.3286C28.8845 10.8637 28.3958 10.5989 27.9312 10.7364C27.4665 10.8742 27.2014 11.3627 27.339 11.8274C27.6048 12.724 28.3192 13.4075 29.1898 13.6648V14.1121C29.1898 14.597 29.5828 14.99 30.0676 14.99ZM24.737 16.2955C26.3261 17.4553 28.1872 18.0307 30.0432 18.0307C32.0959 18.0307 34.1428 17.327 35.8088 15.9318C36.1805 15.6206 36.2296 15.0669 35.9182 14.6953C35.6069 14.3235 35.0532 14.2745 34.6817 14.5858C32.1291 16.7233 28.4654 16.8434 25.772 14.8775C24.2105 13.7378 23.1863 12.0583 22.888 10.1483C22.5897 8.23826 23.0531 6.32635 24.1928 4.76486C26.5455 1.54144 31.0818 0.833017 34.3055 3.18568C37.1009 5.22598 38.0633 8.97606 36.594 12.1025C36.3878 12.5412 36.5763 13.064 37.0151 13.2702C37.4539 13.4766 37.9767 13.288 38.1829 12.8491C40.0091 8.96307 38.8138 4.30268 35.3405 1.76755C31.3351 -1.15567 25.698 -0.275551 22.7748 3.7299C21.3587 5.67013 20.7829 8.04574 21.1535 10.4191C21.524 12.7924 22.7967 14.8794 24.737 16.2955ZM9.89952 14.1122V13.6512C11.0027 13.3023 11.8048 12.2693 11.8048 11.0523V10.9657C11.8048 9.41518 10.5433 8.15388 8.99296 8.15388C8.41047 8.15388 7.93659 7.68 7.93659 7.09751V7.0109C7.93659 6.47616 8.37161 6.04114 8.90635 6.04114H9.07957C9.51131 6.04114 9.89508 6.33069 10.0127 6.74523C10.1449 7.2115 10.6298 7.48209 11.0967 7.35007C11.5631 7.21782 11.8339 6.73247 11.7015 6.26608C11.448 5.37251 10.7552 4.68714 9.89964 4.4148V3.95098C9.89964 3.46622 9.50663 3.07321 9.02187 3.07321C8.5371 3.07321 8.14409 3.46622 8.14409 3.95098V4.3949C7.0113 4.72553 6.18116 5.77277 6.18116 7.0109V7.09751C6.18116 8.64801 7.44258 9.90942 8.99308 9.90942C9.57557 9.90942 10.0493 10.3833 10.0493 10.9657V11.0523C10.0493 11.587 9.61431 12.022 9.07957 12.022H8.90635C8.47976 12.022 8.0974 11.7369 7.97638 11.3287C7.83863 10.8639 7.34989 10.599 6.88537 10.7365C6.42062 10.8743 6.15553 11.3628 6.29316 11.8275C6.55895 12.7241 7.27334 13.4076 8.14398 13.6649V14.1122C8.14398 14.597 8.53699 14.99 9.02175 14.99C9.50652 14.99 9.89952 14.597 9.89952 14.1122ZM29.1898 20.6907V26.3389C29.1898 26.8236 29.5828 27.2167 30.0676 27.2167C30.5524 27.2167 30.9454 26.8236 30.9454 26.3389V20.6907C30.9454 20.2059 30.5524 19.8129 30.0676 19.8129C29.5828 19.8129 29.1898 20.2058 29.1898 20.6907ZM17.9858 9.03153C17.9858 4.07282 13.9516 0.0385742 8.99296 0.0385742C4.03424 0.0386913 0 4.07282 0 9.03153C0 13.9902 4.03424 18.0244 8.99296 18.0244C13.9517 18.0245 17.9858 13.9902 17.9858 9.03153ZM1.75555 9.03153C1.75555 5.04083 5.00225 1.79412 8.99296 1.79412C12.9837 1.79412 16.2303 5.04083 16.2303 9.03153C16.2303 13.0222 12.9836 16.2688 8.99296 16.2688C5.00225 16.2689 1.75555 13.0222 1.75555 9.03153ZM51.007 8.15376C50.4245 8.15376 49.9508 7.67988 49.9508 7.09739V7.01078C49.9508 6.47604 50.3858 6.04102 50.9206 6.04102H51.0938C51.5255 6.04102 51.9093 6.33057 52.0269 6.74511C52.1591 7.21138 52.6443 7.48197 53.1109 7.34996C53.5773 7.2177 53.8481 6.73235 53.7157 6.26596C53.4622 5.37239 52.7693 4.68703 51.9137 4.41468V3.95087C51.9137 3.4661 51.5207 3.07309 51.0359 3.07309C50.5512 3.07309 50.1582 3.4661 50.1582 3.95087V4.39479C49.0255 4.72541 48.1952 5.77266 48.1952 7.01078V7.09739C48.1952 8.64789 49.4567 9.90931 51.007 9.90931C51.5895 9.90931 52.0634 10.3832 52.0634 10.9656V11.0522C52.0634 11.5869 51.6284 12.0219 51.0936 12.0219H50.9204C50.4938 12.0219 50.1114 11.7368 49.9905 11.3286C49.8527 10.8637 49.3641 10.5989 48.8994 10.7364C48.4347 10.8742 48.1696 11.3627 48.3072 11.8274C48.573 12.724 49.2874 13.4075 50.1581 13.6648V14.1121C50.1581 14.5968 50.5511 14.9899 51.0358 14.9899C51.5206 14.9899 51.9136 14.5968 51.9136 14.1121V13.6512C53.0168 13.3023 53.8188 12.2693 53.8188 11.0522V10.9656C53.819 9.41518 52.5575 8.15376 51.007 8.15376ZM45.5562 29.0606H34.3325H27.8657H14.4439C12.6825 29.0606 11.2494 30.4936 11.2494 32.255V56.7668C11.2494 58.5282 12.6825 59.9612 14.4439 59.9612H45.5562C47.3176 59.9612 48.7507 58.5282 48.7507 56.7668V32.2551C48.7506 30.4936 47.3176 29.0606 45.5562 29.0606ZM13.005 32.2551C13.005 31.4617 13.6505 30.8162 14.4439 30.8162H24.7891C24.7025 30.9632 24.625 31.1174 24.5589 31.2787L23.5416 33.7602C23.2606 34.4458 22.6002 34.8887 21.8592 34.8887H13.0051V32.2551H13.005ZM46.995 56.7668C46.995 57.5602 46.3495 58.2057 45.5561 58.2057H14.4439C13.6505 58.2057 13.005 57.5602 13.005 56.7668V36.6442H21.8591C23.3154 36.6442 24.6135 35.7735 25.1659 34.4261L26.1831 31.9447C26.4642 31.2591 27.1246 30.8161 27.8655 30.8161H34.3324C35.0139 30.8161 35.6323 31.1918 35.9463 31.7968L37.4618 34.7167C38.0788 35.9056 39.2944 36.6442 40.6339 36.6442H46.9951V56.7668H46.995ZM46.995 34.8886H40.6339C39.9524 34.8886 39.3341 34.5129 39.0201 33.908L37.5045 30.988C37.4741 30.9293 37.441 30.8726 37.4076 30.8161H45.5562C46.3496 30.8161 46.9951 31.4616 46.9951 32.255V34.8886H46.995ZM51.007 19.5988C50.5223 19.5988 50.1293 19.9918 50.1293 20.4765V24.5754C50.1293 25.1594 49.9323 25.7353 49.5746 26.1969L49.0006 26.938C48.7036 27.3212 48.7736 27.8725 49.1568 28.1694C49.3168 28.2934 49.5059 28.3534 49.6938 28.3534C49.9559 28.3534 50.2154 28.2364 50.3883 28.0132L50.9623 27.2722C51.5572 26.5045 51.8848 25.5468 51.8848 24.5755V20.4766C51.8848 19.9918 51.4918 19.5988 51.007 19.5988ZM51.007 0.0386913C46.0483 0.0386913 42.0142 4.07294 42.0142 9.03165C42.0142 13.9904 46.0484 18.0245 51.007 18.0245C55.9658 18.0245 60 13.9902 60 9.03165C60 4.07282 55.9658 0.0386913 51.007 0.0386913ZM51.007 16.2689C47.0163 16.2689 43.7697 13.0222 43.7697 9.03165C43.7697 5.04094 47.0164 1.79424 51.007 1.79424C54.9977 1.79424 58.2445 5.04094 58.2445 9.03165C58.2445 13.0222 54.9977 16.2689 51.007 16.2689ZM38.0171 39.5104C38.0171 39.9952 38.4101 40.3882 38.8948 40.3882H43.3965V46.4745H16.6035V40.3882H35.3836C35.8684 40.3882 36.2614 39.9952 36.2614 39.5104C36.2614 39.0256 35.8684 38.6326 35.3836 38.6326H16.2959C15.4975 38.6326 14.8479 39.2822 14.8479 40.0806V46.7822C14.8479 47.5806 15.4975 48.2302 16.2959 48.2302H43.7041C44.5025 48.2302 45.1521 47.5806 45.1521 46.7822V40.0806C45.1521 39.2822 44.5025 38.6326 43.7041 38.6326H38.8948C38.4099 38.6326 38.0171 39.0256 38.0171 39.5104ZM28.7046 34.2486H32.0124C32.4971 34.2486 32.8902 33.8555 32.8902 33.3708C32.8902 32.886 32.4971 32.493 32.0124 32.493H28.7046C28.2198 32.493 27.8268 32.886 27.8268 33.3708C27.8268 33.8555 28.2198 34.2486 28.7046 34.2486ZM24.7976 54.0291H15.7257C15.2409 54.0291 14.8479 54.4221 14.8479 54.9069C14.8479 55.3916 15.2409 55.7847 15.7257 55.7847H24.7976C25.2823 55.7847 25.6753 55.3916 25.6753 54.9069C25.6753 54.4221 25.2823 54.0291 24.7976 54.0291ZM22.1296 32.8523C22.1296 32.3675 21.7364 31.9745 21.2512 31.9745C20.7661 31.9745 20.3729 32.3675 20.3729 32.8523C20.3729 33.3371 20.7661 33.7301 21.2512 33.7301C21.7364 33.7301 22.1296 33.3371 22.1296 32.8523ZM28.6462 50.6363H15.7257C15.2409 50.6363 14.8479 51.0293 14.8479 51.5141C14.8479 51.9989 15.2409 52.3919 15.7257 52.3919H28.6461C29.1308 52.3919 29.5238 51.9989 29.5238 51.5141C29.5238 51.0293 29.1309 50.6363 28.6462 50.6363Z" fill="url(#paint0_linear)"/>
</g>
<defs>
<linearGradient id="paint0_linear" x1="2.23517e-07" y1="29.9999" x2="60" y2="29.9999" gradientUnits="userSpaceOnUse">
<stop stop-color="#0099FF"/>
<stop offset="0.786458" stop-color="#1053FF"/>
</linearGradient>
<clipPath id="clip0">
<rect width="60" height="60" fill="white"/>
</clipPath>
</defs>
</svg>
